<?xml version="1.0" encoding="utf-8"?>
<!-- Generator: Adobe Illustrator 17.1.0, SVG Export Plug-In . SVG Version: 6.00 Build 0)  -->
<!DOCTYPE svg PUBLIC "-//W3C//DTD SVG 1.1//EN" "http://www.w3.org/Graphics/SVG/1.1/DTD/svg11.dtd">
<svg version="1.1" id="Layer_1" xmlns="http://www.w3.org/2000/svg" xmlns:xlink="http://www.w3.org/1999/xlink" x="0px" y="0px"
	 viewBox="0 0 30 30" fill='#53c4f6' enable-background="new 0 0 30 30" xml:space="preserve">
<path d="M15,0.1c4.1,0,7.8,1.7,10.5,4.4l0.1,0.1c2.7,2.7,4.3,6.4,4.3,10.4c0,4.1-1.7,7.8-4.3,10.5l-0.1,0.1
	c-2.7,2.7-6.4,4.3-10.4,4.3c-4.1,0-7.8-1.7-10.5-4.4v0C1.8,22.8,0.1,19.1,0.1,15c0-4.1,1.7-7.8,4.4-10.5l0,0l0,0h0
	C7.2,1.8,10.9,0.1,15,0.1L15,0.1z M21.5,13.9L21.5,13.9h-5.3V4.8c0-0.6-0.5-1.1-1.1-1.1c-0.6,0-1.1,0.5-1.1,1.1V15v0
	c0,0.6,0.5,1.1,1.1,1.1h6.5c0.6,0,1.1-0.5,1.1-1.1C22.6,14.4,22.1,13.9,21.5,13.9L21.5,13.9z M23.9,6.1L23.9,6.1
	c-2.3-2.3-5.4-3.7-8.9-3.7c-3.5,0-6.6,1.4-8.9,3.7l0,0C3.8,8.4,2.4,11.5,2.4,15c0,3.5,1.4,6.6,3.7,8.9l0,0v0
	c2.3,2.3,5.4,3.7,8.9,3.7c3.4,0,6.6-1.4,8.8-3.6l0-0.1c2.3-2.3,3.7-5.4,3.7-8.9C27.6,11.5,26.2,8.4,23.9,6.1L23.9,6.1L23.9,6.1z"/>
</svg>
