<?xml version="1.0" encoding="utf-8"?>
<!-- Generator: Adobe Illustrator 17.1.0, SVG Export Plug-In . SVG Version: 6.00 Build 0)  -->
<!DOCTYPE svg PUBLIC "-//W3C//DTD SVG 1.1//EN" "http://www.w3.org/Graphics/SVG/1.1/DTD/svg11.dtd">
<svg version="1.1" id="Layer_1" xmlns="http://www.w3.org/2000/svg" xmlns:xlink="http://www.w3.org/1999/xlink" x="0px" y="0px"
	 viewBox="0 0 30 30" fill='#53c4f6' enable-background="new 0 0 30 30" xml:space="preserve">
<path d="M18.9,25.1c0.4,0,0.7-0.3,0.7-0.7V14.3c0-0.4-0.3-0.7-0.7-0.7h-7.7c-0.4,0-0.7,0.3-0.7,0.7v10.1c0,0.4,0.3,0.7,0.7,0.7H18.9
	L18.9,25.1z M11.8,15L11.8,15h6.4v8.8h-6.4V15L11.8,15z M24.4,15.4L24.4,15.4c-0.6,0-1.1,0.5-1.1,1.1v10H6.7v-10
	c0-0.6-0.5-1.1-1.1-1.1c-0.6,0-1.1,0.5-1.1,1.1v11.2c0,0.6,0.5,1.1,1.1,1.1h18.8c0.6,0,1.1-0.5,1.1-1.1V16.5
	C25.6,15.9,25,15.4,24.4,15.4L24.4,15.4z M29.5,15.2L29.5,15.2L15.8,1.5c-0.4-0.4-1.2-0.4-1.6,0L0.5,15.2c-0.4,0.4-0.4,1.2,0,1.6
	c0.4,0.4,1.2,0.4,1.6,0L15,3.9l12.9,12.9c0.4,0.4,1.2,0.4,1.6,0C30,16.4,30,15.7,29.5,15.2L29.5,15.2z"/>
</svg>
