<?xml version="1.0" encoding="utf-8"?>
<!-- Generator: Adobe Illustrator 17.1.0, SVG Export Plug-In . SVG Version: 6.00 Build 0)  -->
<!DOCTYPE svg PUBLIC "-//W3C//DTD SVG 1.1//EN" "http://www.w3.org/Graphics/SVG/1.1/DTD/svg11.dtd">
<svg version="1.1" id="Layer_1" xmlns="http://www.w3.org/2000/svg" xmlns:xlink="http://www.w3.org/1999/xlink" x="0px" y="0px"
	 viewBox="0 0 34.9 34.6" enable-background="new 0 0 34.9 34.6" xml:space="preserve">
<path d="M25.3,8.1h4.4c0.4,0,0.8-0.4,0.8-0.8c0-0.4-0.4-0.8-0.8-0.8h-4.4c-0.4,0-0.8,0.4-0.8,0.8C24.5,7.8,24.9,8.1,25.3,8.1
	L25.3,8.1z M25.3,14.4L25.3,14.4h4.4c0.4,0,0.8-0.4,0.8-0.8c0-0.4-0.4-0.8-0.8-0.8h-4.4c-0.4,0-0.8,0.4-0.8,0.8
	C24.5,14.1,24.9,14.4,25.3,14.4L25.3,14.4z M5.2,20.8L5.2,20.8h4.4c0.4,0,0.8-0.4,0.8-0.8c0-0.4-0.4-0.8-0.8-0.8H5.2
	c-0.4,0-0.8,0.4-0.8,0.8C4.4,20.4,4.7,20.8,5.2,20.8L5.2,20.8z M25.3,20.8L25.3,20.8h4.4c0.4,0,0.8-0.4,0.8-0.8
	c0-0.4-0.4-0.8-0.8-0.8h-4.4c-0.4,0-0.8,0.4-0.8,0.8C24.5,20.4,24.9,20.8,25.3,20.8L25.3,20.8z M17.1,27.1L17.1,27.1h4.4
	c0.4,0,0.8-0.4,0.8-0.8c0-0.4-0.4-0.8-0.8-0.8h-4.4c-0.4,0-0.8,0.4-0.8,0.8C16.3,26.8,16.7,27.1,17.1,27.1L17.1,27.1z M33.1,0.1
	L33.1,0.1H13.7c-0.7,0-1.3,0.6-1.3,1.3v11.6H1.8c-0.7,0-1.3,0.6-1.3,1.3v18.8c0,0.7,0.6,1.3,1.3,1.3h31.2c0.7,0,1.3-0.6,1.3-1.3V1.4
	C34.4,0.7,33.8,0.1,33.1,0.1L33.1,0.1z M12.4,31.9L12.4,31.9H3.2V15.7h9.3V31.9L12.4,31.9z M31.8,31.9L31.8,31.9H15V2.7h16.7V31.9
	L31.8,31.9z M25.3,27.1L25.3,27.1h4.4c0.4,0,0.8-0.4,0.8-0.8c0-0.4-0.4-0.8-0.8-0.8h-4.4c-0.4,0-0.8,0.4-0.8,0.8
	C24.5,26.8,24.9,27.1,25.3,27.1L25.3,27.1z M17.1,20.8L17.1,20.8h4.4c0.4,0,0.8-0.4,0.8-0.8c0-0.4-0.4-0.8-0.8-0.8h-4.4
	c-0.4,0-0.8,0.4-0.8,0.8C16.3,20.4,16.7,20.8,17.1,20.8L17.1,20.8z M17.1,14.4L17.1,14.4h4.4c0.4,0,0.8-0.4,0.8-0.8
	c0-0.4-0.4-0.8-0.8-0.8h-4.4c-0.4,0-0.8,0.4-0.8,0.8C16.3,14.1,16.7,14.4,17.1,14.4L17.1,14.4z M17.1,8.1L17.1,8.1h4.4
	c0.4,0,0.8-0.4,0.8-0.8c0-0.4-0.4-0.8-0.8-0.8h-4.4c-0.4,0-0.8,0.4-0.8,0.8C16.3,7.8,16.7,8.1,17.1,8.1L17.1,8.1z M5.2,27.1
	L5.2,27.1h4.4c0.4,0,0.8-0.4,0.8-0.8c0-0.4-0.4-0.8-0.8-0.8H5.2c-0.4,0-0.8,0.4-0.8,0.8C4.4,26.8,4.7,27.1,5.2,27.1L5.2,27.1z"/>
</svg>
