<?xml version="1.0" encoding="utf-8"?>
<!-- Generator: Adobe Illustrator 17.1.0, SVG Export Plug-In . SVG Version: 6.00 Build 0)  -->
<!DOCTYPE svg PUBLIC "-//W3C//DTD SVG 1.1//EN" "http://www.w3.org/Graphics/SVG/1.1/DTD/svg11.dtd">
<svg version="1.1" id="Layer_1" xmlns="http://www.w3.org/2000/svg" xmlns:xlink="http://www.w3.org/1999/xlink" x="0px" y="0px"
	 viewBox="0 0 100 100" enable-background="new 0 0 100 100" xml:space="preserve">
<path d="M23,41.3c-0.5,0-0.8-0.4-0.8-0.8c0-0.5,0.4-0.8,0.8-0.8h54c0.5,0,0.8,0.4,0.8,0.8c0,0.5-0.4,0.8-0.8,0.8H23z M77,60.4
	c0.5,0,0.8-0.4,0.8-0.8c0-0.5-0.4-0.8-0.8-0.8H23c-0.5,0-0.8,0.4-0.8,0.8c0,0.5,0.4,0.8,0.8,0.8H77z M77,69.9c0.5,0,0.8-0.4,0.8-0.8
	c0-0.5-0.4-0.8-0.8-0.8H23c-0.5,0-0.8,0.4-0.8,0.8c0,0.5,0.4,0.8,0.8,0.8H77z M77,79.5c0.5,0,0.8-0.4,0.8-0.8c0-0.5-0.4-0.8-0.8-0.8
	H23c-0.5,0-0.8,0.4-0.8,0.8c0,0.5,0.4,0.8,0.8,0.8H77z M77,50.8c0.5,0,0.8-0.4,0.8-0.8s-0.4-0.8-0.8-0.8H23c-0.5,0-0.8,0.4-0.8,0.8
	s0.4,0.8,0.8,0.8H77z M48.4,30.1c0.5,0,0.8-0.4,0.8-0.8c0-0.5-0.4-0.8-0.8-0.8H23c-0.5,0-0.8,0.4-0.8,0.8c0,0.5,0.4,0.8,0.8,0.8
	H48.4z M88.1,100.2c3.1,0,5.6-2.5,5.6-5.6V22.9c0-0.2-0.1-0.4-0.2-0.6L71.2,0.1c-0.2-0.2-0.4-0.2-0.6-0.2H11.9
	c-3.1,0-5.6,2.5-5.6,5.6v89.1c0,3.1,2.5,5.6,5.6,5.6H88.1z M69.8,1.5v21.5c0,0.5,0.4,0.8,0.8,0.8H92v70.8c0,2.2-1.8,3.9-3.9,3.9
	H11.9c-2.2,0-3.9-1.8-3.9-3.9V5.4c0-2.2,1.8-3.9,3.9-3.9H69.8z M71.5,2.7l19.4,19.4H71.5V2.7z"/>
</svg>
